<svg xmlns="http://www.w3.org/2000/svg" width="79" height="79" viewBox="0 0 79 79">
  <g id="Group_9" data-name="Group 9" transform="translate(-257.333 -118.726)">
    <g id="Group_6" data-name="Group 6" transform="translate(259.583 119.226)">
      <path id="Path_2" data-name="Path 2" d="M296.8,197.226a39,39,0,0,1-37.107-26.752l2.727-.943a36.058,36.058,0,1,0-.063-22.417l-2.732-.927A39.065,39.065,0,1,1,296.8,197.226Z" transform="translate(-259.625 -119.226)" fill="#2196f3" stroke="#2196f3" stroke-width="1"/>
    </g>
    <g id="Group_7" data-name="Group 7" transform="translate(257.833 156.761)">
      <rect id="Rectangle_45" data-name="Rectangle 45" width="54.037" height="2.93" fill="#2196f3" stroke="#2196f3" stroke-width="1"/>
    </g>
    <g id="Group_8" data-name="Group 8" transform="translate(295.445 141.677)">
      <path id="Path_3" data-name="Path 3" d="M299.292,175.146l-2.071-2.071L311.7,158.6l-14.478-14.477,2.071-2.071L315.841,158.6Z" transform="translate(-297.221 -142.048)" fill="#2196f3" stroke="#2196f3" stroke-width="1"/>
    </g>
  </g>
</svg>
