@startuml
entity users {
  * entity_id
  * name
  * surname
  * email
  * password(hash)
}

entity wallets {
    * entity_id
    * name
    * init_balance
    * balance
    * color
    ---
    * user_id
}

entity typologies {
    * entity_id
    * name
    * color
    ---
    * user_id
}

entity payment_receivers {
    * entity_id
    * type
    * name
    * phone
    * email
    ---
    * user_id
}

entity transactions {
    * entity_id
    * type(incoming/outcoming)
    * dueDate(if not null is a scheduled transaction)
    * amount
    ---
    * wallet_id
    * typology_id
    * payment-receiver_id
}

entity recurring_transactions {
    * entity_id
    * type("incoming"/"outcoming")
    * amount
    * start_date
    * due_date
    * is_active
    ---
    * wallet_id
    * typology_id
    * payment-receiver_id
}

users ||..|{ wallets
users ||..|{ payment_receivers
users ||..|{ typologies

wallets ||..|{ transactions
wallets ||..|{ recurring_transactions

recurring_transactions }|..|| payment_receivers
recurring_transactions }|..|| typologies

transactions }|..|| payment_receivers
transactions }|..|| typologies


@enduml